10 --- mer s600 --- MERCEDES --- 300.5$ --- 2021-03-15 00:36:46
4 --- mer s450 --- MERCEDES --- 250.5$ --- 2021-03-13 16:41:09
7 --- ferrari spider --- FERRARI --- 120.59$ --- 2021-03-13 20:35:52
8 --- ferrari sf90 --- FERRARI --- 110.5$ --- 2021-03-13 19:30:19
2 --- audi q7 --- AUDI --- 100.4$ --- 2021-03-13 15:49:33
